{
  "php.validate.executablePath": "D:\\GC7\\laragon\\bin\\php\\php-7.2.11-Win32-VC15-x64\\php.exe",
  "window.title": "${dirty}${activeEditorMedium}${separator}${rootName}${separator}$C57",
  "window.zoomLevel": 1,
  //
  "files.autoSave": "afterDelay",
  "files.insertFinalNewline": true,
  //
  "editor.wordWrap": "on",
  "editor.formatOnSaveTimeout": 5000,
  "editor.largeFileOptimizations": false,
  "editor.trimAutoWhitespace": false,
  "editor.insertSpaces": true,
  "prettier.useTabs": true,
  "editor.tabSize": 2,
  "editor.detectIndentation": false,
  //
  "explorer.confirmDelete": false,
  "explorer.confirmDragAndDrop": false,
  "git.enableSmartCommit": true,
  "git.autofetch": true,
  "git.confirmSync": false,
  "gitProjectManager.baseProjectsFolders": [
    "D:/Users/Li/code"
  ],
  "gitlens.advanced.messages": {
    "suppressCommitHasNoPreviousCommitWarning": true,
    "suppressFileNotUnderSourceControlWarning": true
  },
  //
  "twig-language.tabSize": 2,
  "twig-language-2.tabSize": 2,
  "php.suggest.basic": true,
  "phpcs.standard": "PSR1",
  // "phpfmt.indent_with_space": 0,
  //"phpfmt.detect_indent": true,
  "phpfmt.enable_auto_align": true,
  "phpfmt.passes": [
    "PSR2KeywordsLowerCase",
    "PSR2LnAfterNamespace",
    "PSR2CurlyOpenNextLine",
    "PSR2ModifierVisibilityStaticOrder",
    "PSR2SingleEmptyLineAndStripClosingTag",
    "ReindentSwitchBlocks"
  ],
  "phpfmt.exclude": [
    "ReindentComments",
    "StripNewlineWithinClassBody"
  ],
  "phpcs.executablePath": "D:/Users/Li/code/1a2/vendor/squizlabs/php_codesniffer/bin/phpcs.bat",
  "phpcs.ignorePatterns": [
    "*/php-cs-fixer"
  ],
  // Set the default
  "editor.formatOnSave": true,
  // Enable per-language
  "php-cs-fixer.formatHtml": true,
  "[php]": {
    "editor.formatOnSave": true,
    "editor.tabSize": 4,
    "editor.defaultFormatter": "junstyle.php-cs-fixer"
    //"editor.defaultFormatter": "kokororin.vscode-phpfmt"
  },
  //
  "[jsonc]": {
    "editor.defaultFormatter": "vscode.json-language-features"
  },
  "diffEditor.ignoreTrimWhitespace": false,
  "editor.quickSuggestionsDelay": 50,
  "[javascript]": {
    "editor.defaultFormatter": "esbenp.prettier-vscode"
  },
  "[json]": {
    "editor.defaultFormatter": "esbenp.prettier-vscode"
  },
  "[markdown]": {
    "editor.defaultFormatter": "yzhang.markdown-all-in-one"
  },
  "[html]": {
    "editor.defaultFormatter": "esbenp.prettier-vscode"
  },
  "[twig]": {
    "editor.defaultFormatter": "esbenp.prettier-vscode"
  },
  "[scss]": {
    "editor.defaultFormatter": "michelemelluso.code-beautifier"
  },
  "[css]": {
    "editor.defaultFormatter": "michelemelluso.code-beautifier"
  },
  "php-cs-fixer.autoFixBySemicolon": true,
  "terminal.integrated.shell.windows": "C:\\WINDOWS\\System32\\cmd.exe",
  "php-cs-fixer.config": "config/.php_cs.dist",
  "php-cs-fixer.executablePath": "${extensionPath}\\php-cs-fixer.phar",
  "php-cs-fixer.executablePathWindows": "php-cs-fixer.bat",
  "phpfmt.psr2": false,
  "php-cs-fixer.lastDownload": 1567438419460,
  "php-cs-fixer.onsave": true,
  "php-cs-fixer.allowRisky": true,
  "[sql]": {
    "editor.defaultFormatter": "mtxr.sqltools"
  },
  "files.associations": {
    "*.twig": "html",
    "*.php": "php",
    "*.css": "css",
    "*.scss": "scss",
    "*.htm": "blade"
  },
  "emmet.triggerExpansionOnTab": true,
  "blade.format.enable": true,
  "toggleexcludedfiles.statusBar.enabled": true,
  "sqltools.results": {
    "limit": 99999999
  },
  "better-comments.highlightPlainText": true,
  "better-comments.tags": [
    {
      "tag": "//",
      "color": "#474747",
      "strikethrough": true,
      "backgroundColor": "transparent"
    },
    {
      "tag": "*",
      "color": "#52c90e",
      "strikethrough": false,
      "backgroundColor": "transparent"
    },
    {
      "tag": "!",
      "color": "#FF0000",
      "strikethrough": false,
      "backgroundColor": "transparent"
    },
    {
      "tag": "@bug",
      "color": "#FF4901",
      "strikethrough": false,
      "backgroundColor": "transparent"
    },
    {
      "tag": "?",
      "color": "#0000FF",
      "strikethrough": false,
      "backgroundColor": "transparent"
    },
    {
      "tag": "@f",
      "color": "#f0f",
      "strikethrough": false,
      "backgroundColor": "transparent"
    },
    {
      "tag": "@q",
      "color": "#ff0",
      "strikethrough": false,
      "backgroundColor": "transparent"
    },
    {
      "tag": "@s",
      "color": "#fff",
      "strikethrough": false,
      "backgroundColor": "transparent"
    },
    {
      "tag": "2do",
      "color": "#0f0",
      "strikethrough": false,
      "backgroundColor": "transparent"
    },
    {
      "tag": "@not",
      "color": "#ffcf39",
      "strikethrough": false,
      "backgroundColor": "transparent"
    },
    {
      "tag": "@dl",
      "color": "#7ff",
      "strikethrough": false,
      "backgroundColor": "transparent"
    },
    {
      "tag": "@v",
      "color": "#FF8C00",
      "strikethrough": false,
      "backgroundColor": "transparent"
    }
  ],
  "[less]": {
    "editor.defaultFormatter": "michelemelluso.code-beautifier"
  },
  "slack.teamToken": "xoxp-164447091744-164447092096-741305100243-ae7753e15408404daa09c8db65eb3c7f",
  "slack.username": "GrCOTE7",
  "slack.avatarUrl": "https://ca.slack-edge.com/T4UD52PMW-U4UD52Q2U-g846f64e788b-48",
  "[octobercms]": {
    "editor.defaultFormatter": "esbenp.prettier-vscode"
  },
  "peacock.favoriteColors": [
    {
      "name": "Angular Red",
      "value": "#b52e31"
    },
    {
      "name": "Auth0 Orange",
      "value": "#eb5424"
    },
    {
      "name": "Azure Blue",
      "value": "#007fff"
    },
    {
      "name": "C# Purple",
      "value": "#68217A"
    },
    {
      "name": "Gatsby Purple",
      "value": "#639"
    },
    {
      "name": "Go Cyan",
      "value": "#5dc9e2"
    },
    {
      "name": "Java Blue-Gray",
      "value": "#557c9b"
    },
    {
      "name": "JavaScript Yellow",
      "value": "#f9e64f"
    },
    {
      "name": "Mandalorian Blue",
      "value": "#1857a4"
    },
    {
      "name": "Node Green",
      "value": "#215732"
    },
    {
      "name": "React Blue",
      "value": "#00b3e6"
    },
    {
      "name": "Something Different",
      "value": "#832561"
    },
    {
      "name": "Vue Green",
      "value": "#42b883"
    }
  ],
  //
  // "php.validate.executablePath": "/usr/bin/php",
  // "phpcbf.executablePath": "D:/Users/Li/code/questions/vendor/squizlabs/php_codesniffer/bin/phpcbf.bat",
  // "phpcbf.onsave": true,
  // "[php]": {
  //   "editor.defaultFormatter": "Sophisticode.php-formatter"
  // },
  // "simple-php-cs-fixer.save": true,
  // "terminal.integrated.shellArgs.windows": ["/K","D:\\GC7\\laragon\\bin\\cmder\\vendor\\init.bat"],
  //"phpcs.executablePath": "/usr/bin/phpcs",
  //"php.validate.executablePath": "D:\\GC7\\laragon\\bin\\php\\php-7.2.11-Win32-VC15-x64\\php.exe",
  //
  // "liveServer.settings.proxy": {
  //     "enable": true,
  //     "baseUri": "/",
  //     "proxyUri": "http://localhost:5500/"
  // },
  // "liveServer.settings.donotVerifyTags": true,
  // "liveServer.settings.donotShowInfoMsg": true,
  "ungit.showInActiveColumn": true,
  "ungit.showButton": true,
  //

  "todo-tree.general.tags": [
    "2dbug",
    "2fix",
    "2ar",
    "2do"
  ],
  "todo-tree.highlights.highlightDelay": 1500,
  // "todo-tree.highlights.highlightDelay": 1000,
  "todo-tree.highlights.defaultHighlight": {
    "foreground": "green",
    "type": "none"
  },
  "todo-tree.highlights.customHighlight": {
    "2dbug": {
      "icon": "check",
      "type": "line",
      "foreground": "red",
      "iconColour": "red"
    },
    "2fix": {
      "icon": "check",
      "type": "line",
      "foreground": "yellow",
      "iconColour": "yellow"
    },
    "2ar": {
      "icon": "check",
      "type": "line",
      "foreground": "cyan",
      "iconColour": "cyan"
    },
    "2do": {
      "icon": "check",
      "type": "line",
      "foreground": "orange",
      "iconColour": "green"
    }
  },
  "todo-tree.general.debug": true,
  "todo-tree.general.rootFolder": "${workspaceFolder}",
  "todo-tree.tree.showCountsInTree": true,
  "todo-tree.tree.showScanOpenFilesOrWorkspaceButton": true,
  "todo-tree.general.statusBar": "top three",
  "todo-tree.general.statusBarClickBehaviour": "cycle",
}
